Chapter 6 Animated bar chart | Women’s and Minorities’ Working Opportunities in New York City from 1850 to 1940
…
            Women’s and Minorities’ Working Opportunities in New York City from 1850 to 1940

Chapter 6 Animated bar chart

In this chapter, we plot an animated graph to show how labor force for each gender has changed over the years (from 1860 to 1940). Since the text cannot be used in transition in D3, we placed a vertical axis on the left of the bar chart with years. An orange ball keeps moving along the axis to indicate which year’s statistics the graph is showing. To make the change in the bar chart more obvious, we alternatively change the filling color of the bars between blue and green every time the year changes.

## # A tibble: 35 × 5
## # Groups:   YEAR, SEX [18]
##     YEAR SEX    LABFORCE                       n bar_height
##    <int> <chr>  <chr>                      <int>      <dbl>
##  1  1850 Female <NA>                        1786      25.5 
##  2  1850 Male   No, not in the labor force   182       2.6 
##  3  1850 Male   Yes, in the labor force     1556      22.2 
##  4  1860 Female No, not in the labor force  2577      36.8 
##  5  1860 Female Yes, in the labor force      752      10.7 
##  6  1860 Male   No, not in the labor force   265       3.79
##  7  1860 Male   Yes, in the labor force     2806      40.1 
##  8  1870 Female No, not in the labor force  3036      43.4 
##  9  1870 Female Yes, in the labor force      957      13.7 
## 10  1870 Male   No, not in the labor force   230       3.29
## # … with 25 more rows
…
